module gitlab.com/some_prodject_on_microservices/notificator

go 1.18

require github.com/spf13/viper v1.9.0

require (
	github.com/fsnotify/fsnotify v1.5.1 // indirect
	github.com/hashicorp/hcl v1.0.0 // indirect
	github.com/kr/pretty v0.3.0 // indirect
	github.com/magiconair/properties v1.8.5 // indirect
	github.com/pelletier/go-toml v1.9.4 // indirect
	github.com/rogpeppe/go-internal v1.8.0 // indirect
	github.com/spf13/afero v1.6.0 // indirect
	github.com/spf13/cast v1.4.1 // indirect
	github.com/spf13/jwalterweatherman v1.1.0 // indirect
	github.com/spf13/pflag v1.0.5 // indirect
	github.com/subosito/gotenv v1.2.0 // indirect
	golang.org/x/sys v0.0.0-20220317061510-51cd9980dadf // indirect
	golang.org/x/text v0.3.7 // indirect
	gopkg.in/check.v1 v1.0.0-20201130134442-10cb98267c6c // indirect
	gopkg.in/yaml.v2 v2.4.0 // indirect
)

require (
	github.com/mitchellh/mapstructure v1.4.3 // indirect
	github.com/sirupsen/logrus v1.8.1
	github.com/streadway/amqp v1.0.0
	gopkg.in/ini.v1 v1.66.1 // indirect
)
